[gd_scene load_steps=4 format=2]

[ext_resource path="res://gui_theme.tres" type="Theme" id=1]
[ext_resource path="res://menus/PlayButton.gd" type="Script" id=2]

[sub_resource type="Animation" id=1]
resource_name = "Show"
tracks/0/type = "value"
tracks/0/path = NodePath(".:modulate")
tracks/0/interp = 1
tracks/0/loop_wrap = true
tracks/0/imported = false
tracks/0/enabled = true
tracks/0/keys = {
"times": PoolRealArray( 0, 1 ),
"transitions": PoolRealArray( 1, 1 ),
"update": 0,
"values": [ Color( 1, 1, 1, 0 ), Color( 1, 1, 1, 1 ) ]
}

[node name="FinishMenu" type="Control"]
anchor_right = 1.0
anchor_bottom = 1.0
theme = ExtResource( 1 )
__meta__ = {
"_edit_use_anchors_": false
}

[node name="VBoxContainer" type="VBoxContainer" parent="."]
anchor_left = 0.5
anchor_right = 0.5
anchor_bottom = 1.0
margin_left = -219.0
margin_right = 219.0
__meta__ = {
"_edit_use_anchors_": false
}

[node name="MarginContainer" type="MarginContainer" parent="VBoxContainer"]
margin_right = 438.0
margin_bottom = 33.0
size_flags_vertical = 3

[node name="Label" type="Label" parent="VBoxContainer"]
margin_top = 37.0
margin_right = 438.0
margin_bottom = 109.0
text = "Game Over"

[node name="MarginContainer2" type="MarginContainer" parent="VBoxContainer"]
margin_top = 113.0
margin_right = 438.0
margin_bottom = 247.0
size_flags_vertical = 3
size_flags_stretch_ratio = 4.0

[node name="Button" type="Button" parent="VBoxContainer"]
margin_top = 251.0
margin_right = 438.0
margin_bottom = 327.0
text = "Try Again"
script = ExtResource( 2 )

[node name="MarginContainer3" type="MarginContainer" parent="VBoxContainer"]
margin_top = 331.0
margin_right = 438.0
margin_bottom = 600.0
size_flags_vertical = 3
size_flags_stretch_ratio = 8.0

[node name="AnimationPlayer" type="AnimationPlayer" parent="."]
autoplay = "Show"
anims/Show = SubResource( 1 )
